digraph G {
node [style=filled fillcolor=red];
42->23;
42->666;
23->12;
"23d"[shape=point]
23->"23d";
"12i"[shape=point]
12->"12i";
"12d"[shape=point]
12->"12d";
666->444;
"666d"[shape=point]
666->"666d";
"444i"[shape=point]
444->"444i";
"444d"[shape=point]
444->"444d";
}
